…
R is case sensitive. So, one of the things I recommend is to transform
all variable names to lower caps. This will prevent R throwing errors
because you mistyped a variable name.

``` r
### transform variable names to lower caps
NHANESraw <- NHANESraw |>
  janitor::clean_names()

### print dataset
NHANESraw
```

    ## # A tibble: 20,293 × 78
    ##       id survey_yr gender   age age_months race1  race3 education marital_status
    ##    <int> <fct>     <fct>  <int>      <int> <fct>  <fct> <fct>     <fct>         
    ##  1 51624 2009_10   male      34        409 White  <NA>  High Sch… Married       
    ##  2 51625 2009_10   male       4         49 Other  <NA>  <NA>      <NA>          
    ##  3 51626 2009_10   male      16        202 Black  <NA>  <NA>      <NA>          
    ##  4 51627 2009_10   male      10        131 Black  <NA>  <NA>      <NA>          
    ##  5 51628 2009_10   female    60        722 Black  <NA>  High Sch… Widowed       
    ##  6 51629 2009_10   male      26        313 Mexic… <NA>  9 - 11th… Married       
    ##  7 51630 2009_10   female    49        596 White  <NA>  Some Col… LivePartner   
    ##  8 51631 2009_10   female     1         12 White  <NA>  <NA>      <NA>          
    ##  9 51632 2009_10   male      10        124 Hispa… <NA>  <NA>      <NA>          
    ## 10 51633 2009_10   male      80         NA White  <NA>  Some Col… Married       
    ## # ℹ 20,283 more rows
    ## # ℹ 69 more variables: hh_income <fct>, hh_income_mid <int>, poverty <dbl>,
    ## #   home_rooms <int>, home_own <fct>, work <fct>, weight <dbl>, length <dbl>,
    ## #   head_circ <dbl>, height <dbl>, bmi <dbl>, bmi_cat_under20yrs <fct>,
    ## #   bmi_who <fct>, pulse <int>, bp_sys_ave <int>, bp_dia_ave <int>,
    ## #   bp_sys1 <int>, bp_dia1 <int>, bp_sys2 <int>, bp_dia2 <int>, bp_sys3 <int>,
    ## #   bp_dia3 <int>, testosterone <dbl>, direct_chol <dbl>, tot_chol <dbl>, …
…
